[
{
	"id": "3780a560-e0c2-11ed-b5ea-0242ac120002"m
	"todo_image_name": "test.png",
	"zoo_image_name": "test.png",
	"start_time": "",
	"end_time": ""
},
{
	"id": "3780a83a-e0c2-11ed-b5ea-0242ac120002",
	"todo_image_name": "test.png",
	"zoo_image_name": "test.png",
	"start_time": "",
	"end_time": ""
},
{
	"id": "3780a9e8-e0c2-11ed-b5ea-0242ac120002",
	"todo_image_name": "test.png",
	"zoo_image_name": "test.png",
	"start_time": "",
	"end_time": ""
},
{
	"id": "3780ab28-e0c2-11ed-b5ea-0242ac120002",
	"todo_image_name": "test.png",
	"zoo_image_name": "test.png",
	"start_time": "",
	"end_time": ""
},
]