[
{
    "arguments": [
        "clang",
        "-I",
        "D:\\Felgo\\Tools\\QtCreator\\share\\qtcreator\\cplusplus\\wrappedQtHeaders",
        "-I",
        "D:\\Felgo\\Tools\\QtCreator\\share\\qtcreator\\cplusplus\\wrappedQtHeaders\\QtCore",
        "-I",
        "C:\\Users\\usele\\AppData\\Local\\Temp\\QtCreator-HCdmOZ\\clang-uiheader-bSvwlH",
        "-nostdinc",
        "-nostdinc++",
        "--driver-mode=cl",
        "-nologo",
        "-Zc:wchar_t",
        "-FS",
        "-Zc:rvalueCast",
        "-Zc:inline",
        "-Zc:strictStrings",
        "-Zc:throwingNew",
        "-Zc:referenceBinding",
        "-Zc:__cplusplus",
        "-MD",
        "-EHsc",
        "/Zs",
        "-m64",
        "--target=x86_64-pc-windows-msvc",
        "/std:c++14",
        "-fcxx-exceptions",
        "-fexceptions",
        "-fms-compatibility-version=19.29",
        "-DQ_CREATOR_RUN",
        "-DUNICODE",
        "-D_UNICODE",
        "-DWIN32",
        "-D_ENABLE_EXTENDED_ALIGNED_STORAGE",
        "-DWIN64",
        "-DNDEBUG",
        "-DQT_NO_DEBUG",
        "-DQT_QUICK_LIB",
        "-DQT_WIDGETS_LIB",
        "-DQT_MULTIMEDIA_LIB",
        "-DQT_GUI_LIB",
        "-DQT_QMLMODELS_LIB",
        "-DQT_QML_LIB",
        "-DQT_WEBSOCKETS_LIB",
        "-DQT_NETWORK_LIB",
        "-DQT_SQL_LIB",
        "-DQT_BLUETOOTH_LIB",
        "-DQT_CORE_LIB",
        "-D__FUNCSIG__=\"void __cdecl someLegalAndLongishFunctionNameThatWorksAroundQTCREATORBUG-24580(void)\"",
        "-D__FUNCTION__=\"someLegalAndLongishFunctionNameThatWorksAroundQTCREATORBUG-24580\"",
        "-D__FUNCDNAME__=\"?someLegalAndLongishFunctionNameThatWorksAroundQTCREATORBUG-24580@@YAXXZ\"",
        "-I",
        "D:\\Playground\\Asya\\BabyScheduler",
        "-I",
        "D:\\Felgo\\Felgo\\msvc2019_64\\include\\Felgo",
        "-I",
        "D:\\Felgo\\Felgo\\msvc2019_64\\include",
        "-I",
        "D:\\Felgo\\Felgo\\msvc2019_64\\include\\QtQuick",
        "-I",
        "D:\\Felgo\\Felgo\\msvc2019_64\\include\\QtWidgets",
        "-I",
        "D:\\Felgo\\Felgo\\msvc2019_64\\include\\QtMultimedia",
        "-I",
        "D:\\Felgo\\Felgo\\msvc2019_64\\include\\QtGui",
        "-I",
        "D:\\Felgo\\Felgo\\msvc2019_64\\include\\QtANGLE",
        "-I",
        "D:\\Felgo\\Felgo\\msvc2019_64\\include\\QtQmlModels",
        "-I",
        "D:\\Felgo\\Felgo\\msvc2019_64\\include\\QtQml",
        "-I",
        "D:\\Felgo\\Felgo\\msvc2019_64\\include\\QtWebSockets",
        "-I",
        "D:\\Felgo\\Felgo\\msvc2019_64\\include\\QtNetwork",
        "-I",
        "D:\\Felgo\\Felgo\\msvc2019_64\\include\\QtSql",
        "-I",
        "D:\\Felgo\\Felgo\\msvc2019_64\\include\\QtBluetooth",
        "-I",
        "D:\\Felgo\\Felgo\\msvc2019_64\\include\\QtCore",
        "-I",
        "D:\\Playground\\Asya\\BabyScheduler\\release",
        "-I",
        "D:\\Felgo\\Felgo\\msvc2019_64\\mkspecs\\win32-msvc",
        "/clang:-isystem",
        "/clang:D:\\Felgo\\Tools\\QtCreator\\bin\\clang\\lib\\clang\\14.0.3\\include",
        "/clang:-isystem",
        "/clang:C:\\Program Files (x86)\\Microsoft Visual Studio\\2019\\Community\\VC\\Tools\\MSVC\\14.29.30133\\ATLMFC\\include",
        "/clang:-isystem",
        "/clang:C:\\Program Files (x86)\\Microsoft Visual Studio\\2019\\Community\\VC\\Tools\\MSVC\\14.29.30133\\include",
        "/clang:-isystem",
        "/clang:C:\\Program Files (x86)\\Windows Kits\\NETFXSDK\\4.8\\include\\um",
        "/clang:-isystem",
        "/clang:C:\\Program Files (x86)\\Windows Kits\\10\\include\\10.0.19041.0\\ucrt",
        "/clang:-isystem",
        "/clang:C:\\Program Files (x86)\\Windows Kits\\10\\include\\10.0.19041.0\\shared",
        "/clang:-isystem",
        "/clang:C:\\Program Files (x86)\\Windows Kits\\10\\include\\10.0.19041.0\\um",
        "/clang:-isystem",
        "/clang:C:\\Program Files (x86)\\Windows Kits\\10\\include\\10.0.19041.0\\winrt",
        "/clang:-isystem",
        "/clang:C:\\Program Files (x86)\\Windows Kits\\10\\include\\10.0.19041.0\\cppwinrt",
        "/clang:-fmessage-length=0",
        "/clang:-fdiagnostics-show-note-include-stack",
        "/clang:-fretain-comments-from-system-headers",
        "-fmacro-backtrace-limit=0",
        "-ferror-limit=1000",
        "/TP",
        "-Wno-unknown-pragmas",
        "-Wno-unknown-warning-option",
        "-Wno-documentation-unknown-command",
        "/clang:-Wall",
        "/clang:-Wextra",
        "-fno-delayed-template-parsing",
        "D:\\Playground\\Asya\\BabyScheduler\\main.cpp"
    ],
    "directory": "D:/Playground/Asya/BabyScheduler/.qtc_clangd",
    "file": "D:/Playground/Asya/BabyScheduler/main.cpp"
}
]